2019-04-02 12:49:12,597 INFO: Logging started.
2019-04-02 12:49:12,600 INFO: Reading config from: filedrop-config.ini
2019-04-02 12:49:12,791 INFO:  * Running on http://0.0.0.0:5000/ (Press CTRL+C to quit)
2019-04-02 12:56:57,156 INFO: Logging started.
2019-04-02 12:56:57,158 INFO: Reading config from: filedrop-config.ini
2019-04-02 12:56:57,178 INFO:  * Running on http://0.0.0.0:5000/ (Press CTRL+C to quit)
2019-04-02 12:57:54,738 INFO: 127.0.0.1 - - [02/Apr/2019 12:57:54] "GET / HTTP/1.1" 302 -
2019-04-02 12:57:54,926 INFO: 127.0.0.1 - - [02/Apr/2019 12:57:54] "GET /reCAPTCHA HTTP/1.1" 200 -
2019-04-02 12:57:55,022 INFO: 127.0.0.1 - - [02/Apr/2019 12:57:55] "GET /static/style.css HTTP/1.1" 200 -
2019-04-02 12:57:58,365 ERROR: 404 Not Found: The requested URL was not found on the server.  If you entered the URL manually please check your spelling and try again.
2019-04-02 12:57:58,369 INFO: 127.0.0.1 - - [02/Apr/2019 12:57:58] "GET /favicon.ico HTTP/1.1" 200 -
2019-04-02 13:06:30,489 INFO: Logging started.
2019-04-02 13:06:30,492 INFO: Reading config from: filedrop-config.ini
2019-04-02 13:06:30,578 INFO:  * Running on http://0.0.0.0:5000/ (Press CTRL+C to quit)
2019-04-02 13:06:33,832 INFO: 127.0.0.1 - - [02/Apr/2019 13:06:33] "GET /reCAPTCHA HTTP/1.1" 200 -
2019-04-02 13:06:35,287 ERROR: 404 Not Found: The requested URL was not found on the server.  If you entered the URL manually please check your spelling and try again.
2019-04-02 13:06:35,288 INFO: 127.0.0.1 - - [02/Apr/2019 13:06:35] "GET /favicon.ico HTTP/1.1" 200 -
2019-04-02 13:08:17,548 INFO: 127.0.0.1 - - [02/Apr/2019 13:08:17] "GET /reCAPTCHA HTTP/1.1" 200 -
2019-04-02 13:08:18,412 ERROR: 404 Not Found: The requested URL was not found on the server.  If you entered the URL manually please check your spelling and try again.
2019-04-02 13:08:18,413 INFO: 127.0.0.1 - - [02/Apr/2019 13:08:18] "GET /favicon.ico HTTP/1.1" 200 -
2019-04-02 13:10:08,037 INFO: 127.0.0.1 - - [02/Apr/2019 13:10:08] "GET /reCAPTCHA HTTP/1.1" 200 -
2019-04-02 13:10:08,810 ERROR: 404 Not Found: The requested URL was not found on the server.  If you entered the URL manually please check your spelling and try again.
2019-04-02 13:10:08,811 INFO: 127.0.0.1 - - [02/Apr/2019 13:10:08] "GET /favicon.ico HTTP/1.1" 200 -
2019-04-02 13:10:15,124 ERROR: 404 Not Found: The requested URL was not found on the server.  If you entered the URL manually please check your spelling and try again.
2019-04-02 13:10:15,125 INFO: 127.0.0.1 - - [02/Apr/2019 13:10:15] "GET /favicon.ico HTTP/1.1" 200 -
2019-04-02 13:13:43,804 INFO: 127.0.0.1 - - [02/Apr/2019 13:13:43] "GET /reCAPTCHA HTTP/1.1" 200 -
2019-04-02 13:13:45,192 ERROR: 404 Not Found: The requested URL was not found on the server.  If you entered the URL manually please check your spelling and try again.
2019-04-02 13:13:45,193 INFO: 127.0.0.1 - - [02/Apr/2019 13:13:45] "GET /favicon.ico HTTP/1.1" 200 -
2019-04-02 13:14:12,410 INFO: 127.0.0.1 - - [02/Apr/2019 13:14:12] "GET /reCAPTCHA HTTP/1.1" 200 -
2019-04-02 13:14:13,152 ERROR: 404 Not Found: The requested URL was not found on the server.  If you entered the URL manually please check your spelling and try again.
2019-04-02 13:14:13,152 INFO: 127.0.0.1 - - [02/Apr/2019 13:14:13] "GET /favicon.ico HTTP/1.1" 200 -
2019-04-02 13:14:54,834 INFO: 127.0.0.1 - - [02/Apr/2019 13:14:54] "GET /reCAPTCHA HTTP/1.1" 200 -
2019-04-02 13:14:55,613 ERROR: 404 Not Found: The requested URL was not found on the server.  If you entered the URL manually please check your spelling and try again.
2019-04-02 13:14:55,613 INFO: 127.0.0.1 - - [02/Apr/2019 13:14:55] "GET /favicon.ico HTTP/1.1" 200 -
2019-04-02 13:14:59,787 INFO: 127.0.0.1 - - [02/Apr/2019 13:14:59] "GET / HTTP/1.1" 302 -
2019-04-02 13:14:59,819 INFO: 127.0.0.1 - - [02/Apr/2019 13:14:59] "GET /reCAPTCHA HTTP/1.1" 200 -
2019-04-02 13:15:00,587 ERROR: 404 Not Found: The requested URL was not found on the server.  If you entered the URL manually please check your spelling and try again.
2019-04-02 13:15:00,589 INFO: 127.0.0.1 - - [02/Apr/2019 13:15:00] "GET /favicon.ico HTTP/1.1" 200 -
2019-04-02 13:15:44,050 ERROR: 404 Not Found: The requested URL was not found on the server.  If you entered the URL manually please check your spelling and try again.
2019-04-02 13:15:44,051 INFO: 127.0.0.1 - - [02/Apr/2019 13:15:44] "GET /favicon.ico HTTP/1.1" 200 -
2019-04-02 13:17:21,178 INFO: 127.0.0.1 - - [02/Apr/2019 13:17:21] "GET /reCAPTCHA HTTP/1.1" 200 -
2019-04-02 13:17:22,173 ERROR: 404 Not Found: The requested URL was not found on the server.  If you entered the URL manually please check your spelling and try again.
2019-04-02 13:17:22,174 INFO: 127.0.0.1 - - [02/Apr/2019 13:17:22] "GET /favicon.ico HTTP/1.1" 200 -
2019-04-02 13:17:25,750 INFO: 127.0.0.1 - - [02/Apr/2019 13:17:25] "GET /reCAPTCHA HTTP/1.1" 200 -
2019-04-02 13:17:26,628 ERROR: 404 Not Found: The requested URL was not found on the server.  If you entered the URL manually please check your spelling and try again.
2019-04-02 13:17:26,628 INFO: 127.0.0.1 - - [02/Apr/2019 13:17:26] "GET /favicon.ico HTTP/1.1" 200 -
2019-04-02 13:17:36,056 INFO: Logging started.
2019-04-02 13:17:36,058 INFO: Reading config from: filedrop-config.ini
2019-04-02 13:17:36,122 INFO:  * Running on http://0.0.0.0:5000/ (Press CTRL+C to quit)
2019-04-02 13:17:38,055 INFO: 127.0.0.1 - - [02/Apr/2019 13:17:38] "GET /reCAPTCHA HTTP/1.1" 200 -
2019-04-02 13:17:39,263 ERROR: 404 Not Found: The requested URL was not found on the server.  If you entered the URL manually please check your spelling and try again.
2019-04-02 13:17:39,264 INFO: 127.0.0.1 - - [02/Apr/2019 13:17:39] "GET /favicon.ico HTTP/1.1" 200 -
2019-04-02 13:18:03,511 INFO: Logging started.
2019-04-02 13:18:03,512 INFO: Reading config from: filedrop-config.ini
2019-04-02 13:18:03,533 INFO:  * Running on http://0.0.0.0:5000/ (Press CTRL+C to quit)
2019-04-02 13:18:09,554 INFO: 127.0.0.1 - - [02/Apr/2019 13:18:09] "GET /reCAPTCHA HTTP/1.1" 200 -
2019-04-02 13:18:11,402 ERROR: 404 Not Found: The requested URL was not found on the server.  If you entered the URL manually please check your spelling and try again.
2019-04-02 13:18:11,403 INFO: 127.0.0.1 - - [02/Apr/2019 13:18:11] "GET /favicon.ico HTTP/1.1" 200 -
2019-04-02 13:18:21,908 INFO: 127.0.0.1 - - [02/Apr/2019 13:18:21] "POST /reCAPTCHA HTTP/1.1" 302 -
2019-04-02 13:18:21,973 INFO: 127.0.0.1 - - [02/Apr/2019 13:18:21] "GET / HTTP/1.1" 200 -
2019-04-02 13:18:22,037 INFO: 127.0.0.1 - - [02/Apr/2019 13:18:22] "GET /static/html5FileSelector.js HTTP/1.1" 200 -
2019-04-02 13:18:25,783 ERROR: 404 Not Found: The requested URL was not found on the server.  If you entered the URL manually please check your spelling and try again.
2019-04-02 13:18:25,784 INFO: 127.0.0.1 - - [02/Apr/2019 13:18:25] "GET /favicon.ico HTTP/1.1" 200 -
2019-04-02 13:19:10,259 ERROR: 404 Not Found: The requested URL was not found on the server.  If you entered the URL manually please check your spelling and try again.
2019-04-02 13:19:10,260 INFO: 127.0.0.1 - - [02/Apr/2019 13:19:10] "GET /favicon.ico HTTP/1.1" 200 -
2019-04-02 13:19:16,318 INFO: sign_s3: request remote addr: 127.0.0.1
2019-04-02 13:19:18,420 INFO: 127.0.0.1 - - [02/Apr/2019 13:19:18] "GET /sign_s3/ HTTP/1.1" 200 -
2019-04-02 13:20:12,106 INFO: sign_s3: request remote addr: 127.0.0.1
2019-04-02 13:20:13,271 INFO: 127.0.0.1 - - [02/Apr/2019 13:20:13] "GET /sign_s3/ HTTP/1.1" 200 -
2019-04-02 13:28:03,661 INFO: sign_s3: request remote addr: 127.0.0.1
2019-04-02 13:28:05,494 INFO: 127.0.0.1 - - [02/Apr/2019 13:28:05] "GET /sign_s3/ HTTP/1.1" 200 -
2019-04-02 13:39:52,702 INFO: Logging started.
2019-04-02 13:39:52,720 INFO: Reading config from: filedrop-config.ini
2019-04-02 13:42:17,669 INFO: Logging started.
2019-04-02 13:42:17,669 INFO: Reading config from: filedrop-config.ini
2019-04-02 13:43:55,262 INFO: Logging started.
2019-04-02 13:43:55,263 INFO: Reading config from: filedrop-config.ini
2019-04-02 13:44:00,593 INFO: Logging started.
2019-04-02 13:44:00,594 INFO: Reading config from: filedrop-config.ini
2019-04-02 13:45:16,798 INFO: Logging started.
2019-04-02 13:45:16,798 INFO: Reading config from: filedrop-config.ini
2019-04-02 13:45:24,082 INFO: Logging started.
2019-04-02 13:45:24,084 INFO: Reading config from: filedrop-config.ini
2019-04-02 13:48:16,913 INFO: Logging started.
2019-04-02 13:48:16,914 INFO: Reading config from: filedrop-config.ini
2019-04-02 13:49:52,853 INFO: Logging started.
2019-04-02 13:49:52,853 INFO: Reading config from: filedrop-config.ini
2019-04-02 13:49:52,875 INFO:  * Running on http://0.0.0.0:8000/ (Press CTRL+C to quit)
2019-04-02 13:50:04,461 INFO: 127.0.0.1 - - [02/Apr/2019 13:50:04] "GET / HTTP/1.1" 200 -
2019-04-02 13:50:04,634 INFO: 127.0.0.1 - - [02/Apr/2019 13:50:04] "GET /static/html5FileSelector.js HTTP/1.1" 200 -
2019-04-02 13:50:04,639 INFO: 127.0.0.1 - - [02/Apr/2019 13:50:04] "GET /static/style.css HTTP/1.1" 200 -
2019-04-02 13:50:20,529 INFO: sign_s3: request remote addr: 127.0.0.1
2019-04-02 13:50:23,922 INFO: 127.0.0.1 - - [02/Apr/2019 13:50:23] "GET /sign_s3/ HTTP/1.1" 200 -
2019-04-02 13:53:14,397 INFO: 127.0.0.1 - - [02/Apr/2019 13:53:14] "GET / HTTP/1.1" 200 -
2019-04-02 13:53:14,916 ERROR: 404 Not Found: The requested URL was not found on the server.  If you entered the URL manually please check your spelling and try again.
2019-04-02 13:53:14,921 INFO: 127.0.0.1 - - [02/Apr/2019 13:53:14] "GET /favicon.ico HTTP/1.1" 200 -
2019-04-02 13:53:20,957 INFO: sign_s3: request remote addr: 127.0.0.1
2019-04-02 13:53:22,299 INFO: 127.0.0.1 - - [02/Apr/2019 13:53:22] "GET /sign_s3/ HTTP/1.1" 200 -
2019-04-02 13:54:30,896 INFO: 127.0.0.1 - - [02/Apr/2019 13:54:30] "GET / HTTP/1.1" 200 -
2019-04-02 13:54:31,349 ERROR: 404 Not Found: The requested URL was not found on the server.  If you entered the URL manually please check your spelling and try again.
2019-04-02 13:54:31,350 INFO: 127.0.0.1 - - [02/Apr/2019 13:54:31] "GET /favicon.ico HTTP/1.1" 200 -
2019-04-02 13:54:34,969 ERROR: 404 Not Found: The requested URL was not found on the server.  If you entered the URL manually please check your spelling and try again.
2019-04-02 13:54:34,970 INFO: 127.0.0.1 - - [02/Apr/2019 13:54:34] "GET /favicon.ico HTTP/1.1" 200 -
2019-04-02 13:55:00,204 INFO: Logging started.
2019-04-02 13:55:00,205 INFO: Reading config from: filedrop-config.ini
2019-04-02 13:55:00,310 INFO:  * Running on http://0.0.0.0:8000/ (Press CTRL+C to quit)
2019-04-02 13:55:07,335 INFO: 127.0.0.1 - - [02/Apr/2019 13:55:07] "GET / HTTP/1.1" 200 -
2019-04-02 13:55:09,162 ERROR: 404 Not Found: The requested URL was not found on the server.  If you entered the URL manually please check your spelling and try again.
2019-04-02 13:55:09,163 INFO: 127.0.0.1 - - [02/Apr/2019 13:55:09] "GET /favicon.ico HTTP/1.1" 200 -
2019-04-02 13:55:19,872 INFO: sign_s3: request remote addr: 127.0.0.1
2019-04-02 13:55:23,571 INFO: 127.0.0.1 - - [02/Apr/2019 13:55:23] "GET /sign_s3/ HTTP/1.1" 200 -
2019-04-02 13:58:49,076 INFO: Logging started.
2019-04-02 13:58:49,076 INFO: Reading config from: filedrop-config.ini
2019-04-02 13:58:49,108 INFO:  * Running on http://0.0.0.0:8000/ (Press CTRL+C to quit)
2019-04-02 13:59:00,529 INFO: 127.0.0.1 - - [02/Apr/2019 13:59:00] "GET / HTTP/1.1" 200 -
2019-04-02 13:59:00,989 ERROR: 404 Not Found: The requested URL was not found on the server.  If you entered the URL manually please check your spelling and try again.
2019-04-02 13:59:00,990 INFO: 127.0.0.1 - - [02/Apr/2019 13:59:00] "GET /favicon.ico HTTP/1.1" 200 -
2019-04-02 13:59:06,681 INFO: sign_s3: request remote addr: 127.0.0.1
2019-04-02 13:59:09,656 INFO: 127.0.0.1 - - [02/Apr/2019 13:59:09] "GET /sign_s3/ HTTP/1.1" 200 -
2019-04-02 14:07:18,157 INFO: 127.0.0.1 - - [02/Apr/2019 14:07:18] "GET / HTTP/1.1" 200 -
2019-04-02 14:07:19,115 ERROR: 404 Not Found: The requested URL was not found on the server.  If you entered the URL manually please check your spelling and try again.
2019-04-02 14:07:19,116 INFO: 127.0.0.1 - - [02/Apr/2019 14:07:19] "GET /favicon.ico HTTP/1.1" 200 -
2019-04-02 14:07:25,988 INFO: Logging started.
2019-04-02 14:07:25,988 INFO: Reading config from: filedrop-config.ini
2019-04-02 14:07:26,020 INFO:  * Running on http://0.0.0.0:8000/ (Press CTRL+C to quit)
2019-04-02 14:07:28,996 INFO: 127.0.0.1 - - [02/Apr/2019 14:07:28] "GET / HTTP/1.1" 200 -
2019-04-02 14:07:29,309 ERROR: 404 Not Found: The requested URL was not found on the server.  If you entered the URL manually please check your spelling and try again.
2019-04-02 14:07:29,309 INFO: 127.0.0.1 - - [02/Apr/2019 14:07:29] "GET /favicon.ico HTTP/1.1" 200 -
2019-04-02 14:07:33,211 INFO: sign_s3: request remote addr: 127.0.0.1
2019-04-02 14:07:35,740 INFO: 127.0.0.1 - - [02/Apr/2019 14:07:35] "GET /sign_s3/ HTTP/1.1" 200 -
2019-04-02 14:11:10,127 INFO: Logging started.
2019-04-02 14:11:10,128 INFO: Reading config from: filedrop-config.ini
2019-04-02 14:12:45,522 INFO: Logging started.
2019-04-02 14:12:45,523 INFO: Reading config from: filedrop-config.ini
2019-04-02 14:12:45,541 INFO:  * Running on http://0.0.0.0:8000/ (Press CTRL+C to quit)
2019-04-02 14:12:52,459 INFO: 127.0.0.1 - - [02/Apr/2019 14:12:52] "GET / HTTP/1.1" 200 -
2019-04-02 14:12:53,351 ERROR: 404 Not Found: The requested URL was not found on the server.  If you entered the URL manually please check your spelling and try again.
2019-04-02 14:12:53,353 INFO: 127.0.0.1 - - [02/Apr/2019 14:12:53] "GET /favicon.ico HTTP/1.1" 200 -
2019-04-02 14:12:57,791 INFO: sign_s3: request remote addr: 127.0.0.1
2019-04-02 14:12:57,857 ERROR: tuple index out of range
2019-04-02 14:12:57,860 INFO: 127.0.0.1 - - [02/Apr/2019 14:12:57] "GET /sign_s3/ HTTP/1.1" 200 -
2019-04-02 14:13:45,650 INFO: Logging started.
2019-04-02 14:13:45,650 INFO: Reading config from: filedrop-config.ini
2019-04-02 14:13:45,668 INFO:  * Running on http://0.0.0.0:8000/ (Press CTRL+C to quit)
2019-04-02 14:13:49,394 INFO: 127.0.0.1 - - [02/Apr/2019 14:13:49] "GET / HTTP/1.1" 200 -
2019-04-02 14:13:49,718 ERROR: 404 Not Found: The requested URL was not found on the server.  If you entered the URL manually please check your spelling and try again.
2019-04-02 14:13:49,719 INFO: 127.0.0.1 - - [02/Apr/2019 14:13:49] "GET /favicon.ico HTTP/1.1" 200 -
2019-04-02 14:13:53,026 INFO: sign_s3: request remote addr: 127.0.0.1
2019-04-02 14:13:55,382 INFO: 127.0.0.1 - - [02/Apr/2019 14:13:55] "GET /sign_s3/ HTTP/1.1" 200 -
2019-04-02 14:15:58,704 INFO: Logging started.
2019-04-02 14:15:58,705 INFO: Reading config from: filedrop-config.ini
2019-04-02 14:15:58,723 INFO:  * Running on http://0.0.0.0:8000/ (Press CTRL+C to quit)
2019-04-02 14:16:01,498 INFO: 127.0.0.1 - - [02/Apr/2019 14:16:01] "GET / HTTP/1.1" 200 -
2019-04-02 14:16:01,687 ERROR: 404 Not Found: The requested URL was not found on the server.  If you entered the URL manually please check your spelling and try again.
2019-04-02 14:16:01,688 INFO: 127.0.0.1 - - [02/Apr/2019 14:16:01] "GET /favicon.ico HTTP/1.1" 200 -
2019-04-02 14:16:06,658 INFO: sign_s3: request remote addr: 127.0.0.1
2019-04-02 14:16:06,737 ERROR: tuple index out of range
2019-04-02 14:16:06,740 INFO: 127.0.0.1 - - [02/Apr/2019 14:16:06] "GET /sign_s3/ HTTP/1.1" 200 -
2019-04-02 14:17:08,428 INFO: Logging started.
2019-04-02 14:17:08,429 INFO: Reading config from: filedrop-config.ini
2019-04-02 14:17:08,447 INFO:  * Running on http://0.0.0.0:8000/ (Press CTRL+C to quit)
2019-04-02 14:17:12,352 INFO: 127.0.0.1 - - [02/Apr/2019 14:17:12] "GET / HTTP/1.1" 200 -
2019-04-02 14:17:12,545 ERROR: 404 Not Found: The requested URL was not found on the server.  If you entered the URL manually please check your spelling and try again.
2019-04-02 14:17:12,545 INFO: 127.0.0.1 - - [02/Apr/2019 14:17:12] "GET /favicon.ico HTTP/1.1" 200 -
2019-04-02 14:17:15,921 INFO: sign_s3: request remote addr: 127.0.0.1
2019-04-02 14:17:18,213 INFO: 127.0.0.1 - - [02/Apr/2019 14:17:18] "GET /sign_s3/ HTTP/1.1" 200 -
2019-04-02 14:18:49,641 INFO: sign_s3: request remote addr: 127.0.0.1
2019-04-02 14:18:51,334 INFO: 127.0.0.1 - - [02/Apr/2019 14:18:51] "GET /sign_s3/ HTTP/1.1" 200 -
2019-04-02 14:22:51,781 INFO: 127.0.0.1 - - [02/Apr/2019 14:22:51] "GET / HTTP/1.1" 200 -
2019-04-02 14:22:53,941 ERROR: 404 Not Found: The requested URL was not found on the server.  If you entered the URL manually please check your spelling and try again.
2019-04-02 14:22:53,944 INFO: 127.0.0.1 - - [02/Apr/2019 14:22:53] "GET /favicon.ico HTTP/1.1" 200 -
2019-04-02 14:26:50,603 INFO: 127.0.0.1 - - [02/Apr/2019 14:26:50] "GET / HTTP/1.1" 200 -
2019-04-02 14:26:53,684 ERROR: 404 Not Found: The requested URL was not found on the server.  If you entered the URL manually please check your spelling and try again.
2019-04-02 14:26:53,685 INFO: 127.0.0.1 - - [02/Apr/2019 14:26:53] "GET /favicon.ico HTTP/1.1" 200 -
2019-04-02 14:27:15,974 INFO: sign_s3: request remote addr: 127.0.0.1
2019-04-02 14:27:19,767 INFO: 127.0.0.1 - - [02/Apr/2019 14:27:19] "GET /sign_s3/ HTTP/1.1" 200 -
2019-04-02 14:31:51,662 INFO: 127.0.0.1 - - [02/Apr/2019 14:31:51] "GET / HTTP/1.1" 200 -
2019-04-02 14:31:52,957 ERROR: 404 Not Found: The requested URL was not found on the server.  If you entered the URL manually please check your spelling and try again.
2019-04-02 14:31:52,958 INFO: 127.0.0.1 - - [02/Apr/2019 14:31:52] "GET /favicon.ico HTTP/1.1" 200 -
2019-04-02 14:31:59,138 INFO: sign_s3: request remote addr: 127.0.0.1
2019-04-02 14:32:01,615 INFO: 127.0.0.1 - - [02/Apr/2019 14:32:01] "GET /sign_s3/ HTTP/1.1" 200 -
2019-04-02 14:33:01,343 INFO: 127.0.0.1 - - [02/Apr/2019 14:33:01] "GET / HTTP/1.1" 200 -
2019-04-02 14:33:02,275 ERROR: 404 Not Found: The requested URL was not found on the server.  If you entered the URL manually please check your spelling and try again.
2019-04-02 14:33:02,276 INFO: 127.0.0.1 - - [02/Apr/2019 14:33:02] "GET /favicon.ico HTTP/1.1" 200 -
2019-04-02 14:33:06,051 INFO: sign_s3: request remote addr: 127.0.0.1
2019-04-02 14:33:07,814 INFO: 127.0.0.1 - - [02/Apr/2019 14:33:07] "GET /sign_s3/ HTTP/1.1" 200 -
2019-04-02 14:34:20,951 INFO: 127.0.0.1 - - [02/Apr/2019 14:34:20] "GET / HTTP/1.1" 200 -
2019-04-02 14:34:24,521 ERROR: 404 Not Found: The requested URL was not found on the server.  If you entered the URL manually please check your spelling and try again.
2019-04-02 14:34:24,522 INFO: 127.0.0.1 - - [02/Apr/2019 14:34:24] "GET /favicon.ico HTTP/1.1" 200 -
2019-04-02 14:35:40,186 INFO: sign_s3: request remote addr: 127.0.0.1
2019-04-02 14:35:43,293 INFO: 127.0.0.1 - - [02/Apr/2019 14:35:43] "GET /sign_s3/ HTTP/1.1" 200 -
